Chunchbase Startup Funding Data
…
    # Aggregate results
    test_df %>%
      select(observed_label = series_b) %>%
      mutate(fold=fold_number) %>%
      mutate(prob_positive_rf1 = predict(forest1, newdata=test_df, type="prob")[,"yes"]) %>%
      mutate(predicted_label_rf1 = ifelse(prob_positive_rf1 > 0.5, "yes", "no")) %>%
      mutate(prob_positive_rf2 = predict(forest2, newdata=test_df, type="prob")[, "yes"]) %>%
      mutate(predicted_label_rf2 = ifelse(prob_positive_rf2 > 0.5, "yes", "no"))
}) %>%
  reduce(bind_rows)

# Print results
result_df

## # A tibble: 25,610 x 6
##    observed_label fold  prob_positive_r predicted_label prob_positive_r
##    <fct>          <chr>            <dbl> <chr>                       <dbl>
##  1 yes            Fold              0   no                          0.019
##  2 yes            Fold              0   no                          0.003
##  3 yes            Fold              0   no                          0.001
##  4 yes            Fold              0.1 no                          0.005
##  5 yes            Fold              0   no                          0    
##  6 yes            Fold              0   no                          0.019
##  7 yes            Fold              0   no                          0    
##  8 yes            Fold              0   no                          0    
##  9 yes            Fold              0   no                          0    
## 10 yes            Fold              0.4 no                          0.176
## # ... with 25,600 more rows, and 1 more variable:
## #   predicted_label_rf2 <chr>
…
